%YAML 1.1
%TAG !u! tag:unity3d.com,2011:
--- !u!1 &100000
GameObject:
  m_ObjectHideFlags: 0
  m_PrefabParentObject: {fileID: 0}
  m_PrefabInternal: {fileID: 100100000}
  serializedVersion: 4
  m_Component:
  - 4: {fileID: 400000}
  - 114: {fileID: 11400000}
  m_Layer: 0
  m_Name: SplashScreenImages@2x
  m_TagString: Untagged
  m_Icon: {fileID: 0}
  m_NavMeshLayer: 0
  m_StaticEditorFlags: 0
  m_IsActive: 1
--- !u!4 &400000
Transform:
  m_ObjectHideFlags: 1
  m_PrefabParentObject: {fileID: 0}
  m_PrefabInternal: {fileID: 100100000}
  m_GameObject: {fileID: 100000}
  m_LocalRotation: {x: 0, y: 0, z: 0, w: 1}
  m_LocalPosition: {x: 0, y: 0, z: 0}
  m_LocalScale: {x: 1, y: 1, z: 1}
  m_Children: []
  m_Father: {fileID: 0}
  m_RootOrder: 0
--- !u!114 &11400000
MonoBehaviour:
  m_ObjectHideFlags: 1
  m_PrefabParentObject: {fileID: 0}
  m_PrefabInternal: {fileID: 100100000}
  m_GameObject: {fileID: 100000}
  m_Enabled: 1
  m_EditorHideFlags: 0
  m_Script: {fileID: 11500000, guid: d546f34a90531a14eaba82a43b05b86b, type: 3}
  m_Name: 
  m_EditorClassIdentifier: 
  version: 3
  materialIdsValid: 1
  needMaterialInstance: 1
  spriteDefinitions:
  - name: logo_client
    boundsData:
    - {x: .5, y: .5, z: 0}
    - {x: 294, y: 112, z: 0}
    untrimmedBoundsData:
    - {x: 0, y: 0, z: 0}
    - {x: 304, y: 115, z: 0}
    texelSize: {x: 1, y: 1}
    positions:
    - {x: -146.5, y: -55.5, z: 0}
    - {x: 147.5, y: -55.5, z: 0}
    - {x: -146.5, y: 56.5, z: 0}
    - {x: 147.5, y: 56.5, z: 0}
    normals: []
    tangents: []
    uvs:
    - {x: .00390820298, y: .319336921}
    - {x: .00390820298, y: .893553734}
    - {x: .441404283, y: .319336921}
    - {x: .441404283, y: .893553734}
    indices: 000000000300000001000000020000000300000000000000
    material: {fileID: 2100000, guid: 854d6b895ebf7c14ab58fe514a4d82d0, type: 2}
    materialId: 0
    sourceTextureGUID: 95a07148765844a188f7ff0a56842da2
    extractRegion: 0
    regionX: 0
    regionY: 0
    regionW: 0
    regionH: 0
    flipped: 1
    complexGeometry: 0
    physicsEngine: 0
    colliderType: 0
    customColliders: []
    colliderVertices: []
    colliderIndicesFwd: 
    colliderIndicesBack: 
    colliderConvex: 0
    colliderSmoothSphereCollisions: 0
    polygonCollider2D: []
    edgeCollider2D: []
    attachPoints: []
  - name: logo_bbc
    boundsData:
    - {x: .25, y: -.25, z: 0}
    - {x: 214.5, y: 160.5, z: 0}
    untrimmedBoundsData:
    - {x: .25, y: -.25, z: 0}
    - {x: 214.5, y: 160.5, z: 0}
    texelSize: {x: 1, y: 1}
    positions:
    - {x: -107, y: -80.5, z: 0}
    - {x: 107.5, y: -80.5, z: 0}
    - {x: -107, y: 80, z: 0}
    - {x: 107.5, y: 80, z: 0}
    normals: []
    tangents: []
    uvs:
    - {x: .00390820298, y: .00195410149}
    - {x: .841794908, y: .00195410149}
    - {x: .00390820298, y: .315428704}
    - {x: .841794908, y: .315428704}
    indices: 000000000300000001000000020000000300000000000000
    material: {fileID: 2100000, guid: 854d6b895ebf7c14ab58fe514a4d82d0, type: 2}
    materialId: 0
    sourceTextureGUID: 37068ab1470c84a1197862835c936cfb
    extractRegion: 0
    regionX: 0
    regionY: 0
    regionW: 0
    regionH: 0
    flipped: 0
    complexGeometry: 0
    physicsEngine: 0
    colliderType: 0
    customColliders: []
    colliderVertices: []
    colliderIndicesFwd: 
    colliderIndicesBack: 
    colliderConvex: 0
    colliderSmoothSphereCollisions: 0
    polygonCollider2D: []
    edgeCollider2D: []
    attachPoints: []
  - name: logo_beasties
    boundsData:
    - {x: -.250003815, y: .25, z: 0}
    - {x: 244.5, y: 133.5, z: 0}
    untrimmedBoundsData:
    - {x: 0, y: -.25, z: 0}
    - {x: 250, y: 136.5, z: 0}
    texelSize: {x: 1, y: 1}
    positions:
    - {x: -122.5, y: -66.5, z: 0}
    - {x: 121.999992, y: -66.5, z: 0}
    - {x: -122.5, y: 67, z: 0}
    - {x: 121.999992, y: 67, z: 0}
    normals: []
    tangents: []
    uvs:
    - {x: .449220717, y: .319336921}
    - {x: .449220717, y: .796874046}
    - {x: .970701158, y: .319336921}
    - {x: .970701158, y: .796874046}
    indices: 000000000300000001000000020000000300000000000000
    material: {fileID: 2100000, guid: 854d6b895ebf7c14ab58fe514a4d82d0, type: 2}
    materialId: 0
    sourceTextureGUID: db1655c01207e433ab872c7f104b50ee
    extractRegion: 0
    regionX: 0
    regionY: 0
    regionW: 0
    regionH: 0
    flipped: 1
    complexGeometry: 0
    physicsEngine: 0
    colliderType: 0
    customColliders: []
    colliderVertices: []
    colliderIndicesFwd: 
    colliderIndicesBack: 
    colliderConvex: 0
    colliderSmoothSphereCollisions: 0
    polygonCollider2D: []
    edgeCollider2D: []
    attachPoints: []
  - name: 
    boundsData:
    - {x: 15.5, y: -15.5, z: 0}
    - {x: 32, y: 32, z: 0}
    untrimmedBoundsData:
    - {x: 15.5, y: -15.5, z: 0}
    - {x: 32, y: 32, z: 0}
    texelSize: {x: 1, y: 1}
    positions:
    - {x: -.5, y: -31.5, z: 0}
    - {x: 31.5, y: -31.5, z: 0}
    - {x: -.5, y: .5, z: 0}
    - {x: 31.5, y: .5, z: 0}
    normals: []
    tangents: []
    uvs:
    - {x: .849611342, y: .00195410149}
    - {x: .853513658, y: .00195410149}
    - {x: .849611342, y: .00390527351}
    - {x: .853513658, y: .00390527351}
    indices: 000000000300000001000000020000000300000000000000
    material: {fileID: 2100000, guid: 854d6b895ebf7c14ab58fe514a4d82d0, type: 2}
    materialId: 0
    sourceTextureGUID: 
    extractRegion: 0
    regionX: 0
    regionY: 0
    regionW: 0
    regionH: 0
    flipped: 0
    complexGeometry: 0
    physicsEngine: 0
    colliderType: 0
    customColliders: []
    colliderVertices: []
    colliderIndicesFwd: 
    colliderIndicesBack: 
    colliderConvex: 0
    colliderSmoothSphereCollisions: 0
    polygonCollider2D: []
    edgeCollider2D: []
    attachPoints: []
  - name: bbc_strapline
    boundsData:
    - {x: .25, y: -.25, z: 0}
    - {x: 250.5, y: 46.5, z: 0}
    untrimmedBoundsData:
    - {x: .25, y: -.25, z: 0}
    - {x: 250.5, y: 46.5, z: 0}
    texelSize: {x: 1, y: 1}
    positions:
    - {x: -125, y: -23.5, z: 0}
    - {x: 125.5, y: -23.5, z: 0}
    - {x: -125, y: 23, z: 0}
    - {x: 125.5, y: 23, z: 0}
    normals: []
    tangents: []
    uvs:
    - {x: .00390820298, y: .897461891}
    - {x: .982419908, y: .897461891}
    - {x: .00390820298, y: .988280296}
    - {x: .982419908, y: .988280296}
    indices: 000000000300000001000000020000000300000000000000
    material: {fileID: 2100000, guid: 854d6b895ebf7c14ab58fe514a4d82d0, type: 2}
    materialId: 0
    sourceTextureGUID: 45a1d3d750c87436cb66d5e1f6d2af25
    extractRegion: 0
    regionX: 0
    regionY: 0
    regionW: 0
    regionH: 0
    flipped: 0
    complexGeometry: 0
    physicsEngine: 0
    colliderType: 0
    customColliders: []
    colliderVertices: []
    colliderIndicesFwd: 
    colliderIndicesBack: 
    colliderConvex: 0
    colliderSmoothSphereCollisions: 0
    polygonCollider2D: []
    edgeCollider2D: []
    attachPoints: []
  premultipliedAlpha: 0
  material: {fileID: 0}
  materials:
  - {fileID: 2100000, guid: 854d6b895ebf7c14ab58fe514a4d82d0, type: 2}
  textures: []
  pngTextures:
  - {fileID: 4900000, guid: 18b2205e31939d247a92889d37cf6baf, type: 3}
  materialPngTextureId: 00000000
  textureFilterMode: 1
  textureMipMaps: 0
  allowMultipleAtlases: 1
  spriteCollectionGUID: c38d6c5cac9951b419256e1472e8e77c
  spriteCollectionName: SplashScreenImages@2x
  assetName: 
  loadable: 0
  invOrthoSize: 2
  halfTargetHeight: .5
  buildKey: 816022758
  dataGuid: 202edaac57a3a06459576f065159e046
  managedSpriteCollection: 1
  hasPlatformData: 0
  spriteCollectionPlatforms: []
  spriteCollectionPlatformGUIDs: []
--- !u!1001 &100100000
Prefab:
  m_ObjectHideFlags: 1
  serializedVersion: 2
  m_Modification:
    m_TransformParent: {fileID: 0}
    m_Modifications: []
    m_RemovedComponents: []
  m_ParentPrefab: {fileID: 0}
  m_RootGameObject: {fileID: 100000}
  m_IsPrefabParent: 1
  m_IsExploded: 1
