%YAML 1.1
%TAG !u! tag:unity3d.com,2011:
--- !u!1 &112618
GameObject:
  m_ObjectHideFlags: 0
  m_PrefabParentObject: {fileID: 0}
  m_PrefabInternal: {fileID: 100100000}
  serializedVersion: 4
  m_Component:
  - 4: {fileID: 412618}
  - 114: {fileID: 11412618}
  m_Layer: 0
  m_Name: ContinueDrawingPopup@1x
  m_TagString: Untagged
  m_Icon: {fileID: 0}
  m_NavMeshLayer: 0
  m_StaticEditorFlags: 0
  m_IsActive: 1
--- !u!4 &412618
Transform:
  m_ObjectHideFlags: 1
  m_PrefabParentObject: {fileID: 0}
  m_PrefabInternal: {fileID: 100100000}
  m_GameObject: {fileID: 112618}
  m_LocalRotation: {x: 0, y: 0, z: 0, w: 1}
  m_LocalPosition: {x: 0, y: 0, z: 0}
  m_LocalScale: {x: 1, y: 1, z: 1}
  m_Children: []
  m_Father: {fileID: 0}
  m_RootOrder: 0
--- !u!114 &11412618
MonoBehaviour:
  m_ObjectHideFlags: 1
  m_PrefabParentObject: {fileID: 0}
  m_PrefabInternal: {fileID: 100100000}
  m_GameObject: {fileID: 112618}
  m_Enabled: 1
  m_EditorHideFlags: 0
  m_Script: {fileID: 11500000, guid: d546f34a90531a14eaba82a43b05b86b, type: 3}
  m_Name: 
  m_EditorClassIdentifier: 
  version: 3
  materialIdsValid: 1
  needMaterialInstance: 1
  spriteDefinitions:
  - name: blank_btn
    boundsData:
    - {x: 0, y: 0, z: 0}
    - {x: 2, y: 2, z: 0}
    untrimmedBoundsData:
    - {x: 0, y: 0, z: 0}
    - {x: 2, y: 2, z: 0}
    texelSize: {x: 1, y: 1}
    positions:
    - {x: -1, y: -1, z: 0}
    - {x: 1, y: -1, z: 0}
    - {x: -1, y: 1, z: 0}
    - {x: 1, y: 1, z: 0}
    normals: []
    tangents: []
    uvs:
    - {x: .0625312477, y: .875031233}
    - {x: .124968752, y: .875031233}
    - {x: .0625312477, y: .937468767}
    - {x: .124968752, y: .937468767}
    indices: 000000000300000001000000020000000300000000000000
    material: {fileID: 2100000, guid: 6cc699f5090bc7340892623410988583, type: 2}
    materialId: 0
    sourceTextureGUID: 3db3645d19c24df468b2a6edf9f8443e
    extractRegion: 0
    regionX: 0
    regionY: 0
    regionW: 0
    regionH: 0
    flipped: 0
    complexGeometry: 0
    physicsEngine: 0
    colliderType: 0
    customColliders: []
    colliderVertices: []
    colliderIndicesFwd: 
    colliderIndicesBack: 
    colliderConvex: 0
    colliderSmoothSphereCollisions: 0
    polygonCollider2D: []
    edgeCollider2D: []
    attachPoints: []
  - name: ui_button_close
    boundsData:
    - {x: 0, y: 0, z: 0}
    - {x: 22, y: 22, z: 0}
    untrimmedBoundsData:
    - {x: 0, y: 0, z: 0}
    - {x: 22, y: 22, z: 0}
    texelSize: {x: 1, y: 1}
    positions:
    - {x: -11, y: -11, z: 0}
    - {x: 11, y: -11, z: 0}
    - {x: -11, y: 11, z: 0}
    - {x: 11, y: 11, z: 0}
    normals: []
    tangents: []
    uvs:
    - {x: .0625312477, y: .0625312477}
    - {x: .749968767, y: .0625312477}
    - {x: .0625312477, y: .749968767}
    - {x: .749968767, y: .749968767}
    indices: 000000000300000001000000020000000300000000000000
    material: {fileID: 2100000, guid: 6cc699f5090bc7340892623410988583, type: 2}
    materialId: 0
    sourceTextureGUID: 0606ad273164e23418238391afc82514
    extractRegion: 0
    regionX: 0
    regionY: 0
    regionW: 0
    regionH: 0
    flipped: 0
    complexGeometry: 0
    physicsEngine: 0
    colliderType: 0
    customColliders: []
    colliderVertices: []
    colliderIndicesFwd: 
    colliderIndicesBack: 
    colliderConvex: 0
    colliderSmoothSphereCollisions: 0
    polygonCollider2D: []
    edgeCollider2D: []
    attachPoints: []
  premultipliedAlpha: 0
  material: {fileID: 0}
  materials:
  - {fileID: 2100000, guid: 6cc699f5090bc7340892623410988583, type: 2}
  textures: []
  pngTextures:
  - {fileID: 4900000, guid: 379fd3d0e04566840bc7cdce80f8dc8e, type: 3}
  materialPngTextureId: 00000000
  textureFilterMode: 1
  textureMipMaps: 0
  allowMultipleAtlases: 0
  spriteCollectionGUID: 8686897060b336a48bcfd479d37b3ef3
  spriteCollectionName: ContinueDrawingPopup@1x
  assetName: 
  loadable: 0
  invOrthoSize: 2
  halfTargetHeight: .5
  buildKey: 524686546
  dataGuid: 429190cc8c40ed445892c36fa42e0000
  managedSpriteCollection: 1
  hasPlatformData: 0
  spriteCollectionPlatforms: []
  spriteCollectionPlatformGUIDs: []
--- !u!1001 &100100000
Prefab:
  m_ObjectHideFlags: 1
  serializedVersion: 2
  m_Modification:
    m_TransformParent: {fileID: 0}
    m_Modifications: []
    m_RemovedComponents: []
  m_ParentPrefab: {fileID: 0}
  m_RootGameObject: {fileID: 112618}
  m_IsPrefabParent: 1
  m_IsExploded: 1
