%YAML 1.1
%TAG !u! tag:unity3d.com,2011:
--- !u!1 &100000
GameObject:
  m_ObjectHideFlags: 0
  m_PrefabParentObject: {fileID: 0}
  m_PrefabInternal: {fileID: 100100000}
  serializedVersion: 4
  m_Component:
  - 4: {fileID: 400000}
  - 114: {fileID: 11400000}
  m_Layer: 0
  m_Name: ParentsArea
  m_TagString: Untagged
  m_Icon: {fileID: 0}
  m_NavMeshLayer: 0
  m_StaticEditorFlags: 0
  m_IsActive: 1
--- !u!4 &400000
Transform:
  m_ObjectHideFlags: 1
  m_PrefabParentObject: {fileID: 0}
  m_PrefabInternal: {fileID: 100100000}
  m_GameObject: {fileID: 100000}
  m_LocalRotation: {x: 0, y: 0, z: 0, w: 1}
  m_LocalPosition: {x: 0, y: 0, z: 0}
  m_LocalScale: {x: 1, y: 1, z: 1}
  m_Children: []
  m_Father: {fileID: 0}
  m_RootOrder: 0
--- !u!114 &11400000
MonoBehaviour:
  m_ObjectHideFlags: 1
  m_PrefabParentObject: {fileID: 0}
  m_PrefabInternal: {fileID: 100100000}
  m_GameObject: {fileID: 100000}
  m_Enabled: 1
  m_EditorHideFlags: 0
  m_Script: {fileID: 11500000, guid: d546f34a90531a14eaba82a43b05b86b, type: 3}
  m_Name: 
  m_EditorClassIdentifier: 
  version: 3
  materialIdsValid: 0
  needMaterialInstance: 0
  spriteDefinitions: []
  premultipliedAlpha: 0
  material: {fileID: 0}
  materials: []
  textures: []
  pngTextures: []
  materialPngTextureId: 
  textureFilterMode: 1
  textureMipMaps: 0
  allowMultipleAtlases: 0
  spriteCollectionGUID: c125cb3b29552fa4d8fd84db2d3bbc69
  spriteCollectionName: ParentsArea
  assetName: 
  loadable: 0
  invOrthoSize: 1
  halfTargetHeight: 1
  buildKey: 0
  dataGuid: 50bfda53402366b408b9502636613b88
  managedSpriteCollection: 0
  hasPlatformData: 1
  spriteCollectionPlatforms:
  - 1x
  - 2x
  spriteCollectionPlatformGUIDs:
  - 09b73e618afd07349847ad3951aa7ea3
  - e741f7c00b4b08e49a734e9078b03a5a
--- !u!1001 &100100000
Prefab:
  m_ObjectHideFlags: 1
  serializedVersion: 2
  m_Modification:
    m_TransformParent: {fileID: 0}
    m_Modifications: []
    m_RemovedComponents: []
  m_ParentPrefab: {fileID: 0}
  m_RootGameObject: {fileID: 100000}
  m_IsPrefabParent: 1
  m_IsExploded: 1
