%YAML 1.1
%TAG !u! tag:unity3d.com,2011:
--- !u!74 &7400000
AnimationClip:
  m_ObjectHideFlags: 0
  m_PrefabParentObject: {fileID: 0}
  m_PrefabInternal: {fileID: 0}
  m_Name: Press
  serializedVersion: 4
  m_AnimationType: 2
  m_Compressed: 0
  m_UseHighQualityCurve: 1
  m_RotationCurves: []
  m_CompressedRotationCurves: []
  m_PositionCurves:
  - curve:
      serializedVersion: 2
      m_Curve:
      - time: 0
        value: {x: 0, y: -3, z: 0}
        inSlope: {x: 0, y: 17.1428566, z: 0}
        outSlope: {x: 0, y: 17.1428566, z: 0}
        tangentMode: 1561382360
      - time: .116666667
        value: {x: 0, y: -1, z: 0}
        inSlope: {x: 0, y: 17.1428566, z: 0}
        outSlope: {x: 0, y: 17.1428566, z: 0}
        tangentMode: 1211003493
      m_PreInfinity: 2
      m_PostInfinity: 2
    path: shadow_bottom
  m_ScaleCurves:
  - curve:
      serializedVersion: 2
      m_Curve:
      - time: 0
        value: {x: 1, y: 1, z: 1}
        inSlope: {x: -1.71428561, y: -1.71428561, z: 0}
        outSlope: {x: -1.71428561, y: -1.71428561, z: 0}
        tangentMode: 0
      - time: .116666667
        value: {x: .800000012, y: .800000012, z: 1}
        inSlope: {x: -1.71428561, y: -1.71428561, z: 0}
        outSlope: {x: -1.71428561, y: -1.71428561, z: 0}
        tangentMode: 1211003493
      m_PreInfinity: 2
      m_PostInfinity: 2
    path: Sprite
  - curve:
      serializedVersion: 2
      m_Curve:
      - time: 0
        value: {x: 1, y: 1, z: 1}
        inSlope: {x: -1.71428561, y: -1.71428561, z: 0}
        outSlope: {x: -1.71428561, y: -1.71428561, z: 0}
        tangentMode: 8
      - time: .116666667
        value: {x: .800000012, y: .800000012, z: 1}
        inSlope: {x: -1.71428561, y: -1.71428561, z: 0}
        outSlope: {x: -1.71428561, y: -1.71428561, z: 0}
        tangentMode: 7628903
      m_PreInfinity: 2
      m_PostInfinity: 2
    path: shadow_bottom
  m_FloatCurves: []
  m_PPtrCurves: []
  m_SampleRate: 60
  m_WrapMode: 0
  m_Bounds:
    m_Center: {x: 0, y: 0, z: 0}
    m_Extent: {x: 0, y: 0, z: 0}
  m_ClipBindingConstant:
    genericBindings:
    - path: 2802662761
      attribute: 1
      script: {fileID: 0}
      classID: 4
      customType: 0
      isPPtrCurve: 0
    - path: 850496168
      attribute: 3
      script: {fileID: 0}
      classID: 4
      customType: 0
      isPPtrCurve: 0
    - path: 2802662761
      attribute: 3
      script: {fileID: 0}
      classID: 4
      customType: 0
      isPPtrCurve: 0
    pptrCurveMapping: []
  m_AnimationClipSettings:
    serializedVersion: 2
    m_StartTime: 0
    m_StopTime: .116666667
    m_OrientationOffsetY: 0
    m_Level: 0
    m_CycleOffset: 0
    m_LoopTime: 0
    m_LoopBlend: 0
    m_LoopBlendOrientation: 0
    m_LoopBlendPositionY: 0
    m_LoopBlendPositionXZ: 0
    m_KeepOriginalOrientation: 0
    m_KeepOriginalPositionY: 1
    m_KeepOriginalPositionXZ: 0
    m_HeightFromFeet: 0
    m_Mirror: 0
  m_EditorCurves:
  - curve:
      serializedVersion: 2
      m_Curve:
      - time: 0
        value: 1
        inSlope: -1.71428561
        outSlope: -1.71428561
        tangentMode: 10
      - time: .116666667
        value: .800000012
        inSlope: -1.71428561
        outSlope: -1.71428561
        tangentMode: 10
      m_PreInfinity: 2
      m_PostInfinity: 2
    attribute: m_LocalScale.x
    path: Sprite
    classID: 4
    script: {fileID: 0}
  - curve:
      serializedVersion: 2
      m_Curve:
      - time: 0
        value: 1
        inSlope: -1.71428561
        outSlope: -1.71428561
        tangentMode: 10
      - time: .116666667
        value: .800000012
        inSlope: -1.71428561
        outSlope: -1.71428561
        tangentMode: 10
      m_PreInfinity: 2
      m_PostInfinity: 2
    attribute: m_LocalScale.y
    path: Sprite
    classID: 4
    script: {fileID: 0}
  - curve:
      serializedVersion: 2
      m_Curve:
      - time: 0
        value: 1
        inSlope: 0
        outSlope: 0
        tangentMode: 10
      - time: .116666667
        value: 1
        inSlope: 0
        outSlope: 0
        tangentMode: 10
      m_PreInfinity: 2
      m_PostInfinity: 2
    attribute: m_LocalScale.z
    path: Sprite
    classID: 4
    script: {fileID: 0}
  - curve:
      serializedVersion: 2
      m_Curve:
      - time: 0
        value: 1
        inSlope: -1.71428561
        outSlope: -1.71428561
        tangentMode: 10
      - time: .116666667
        value: .800000012
        inSlope: -1.71428561
        outSlope: -1.71428561
        tangentMode: 10
      m_PreInfinity: 2
      m_PostInfinity: 2
    attribute: m_LocalScale.x
    path: shadow_bottom
    classID: 4
    script: {fileID: 0}
  - curve:
      serializedVersion: 2
      m_Curve:
      - time: 0
        value: 1
        inSlope: -1.71428561
        outSlope: -1.71428561
        tangentMode: 10
      - time: .116666667
        value: .800000012
        inSlope: -1.71428561
        outSlope: -1.71428561
        tangentMode: 10
      m_PreInfinity: 2
      m_PostInfinity: 2
    attribute: m_LocalScale.y
    path: shadow_bottom
    classID: 4
    script: {fileID: 0}
  - curve:
      serializedVersion: 2
      m_Curve:
      - time: 0
        value: 1
        inSlope: 0
        outSlope: 0
        tangentMode: 10
      - time: .116666667
        value: 1
        inSlope: 0
        outSlope: 0
        tangentMode: 10
      m_PreInfinity: 2
      m_PostInfinity: 2
    attribute: m_LocalScale.z
    path: shadow_bottom
    classID: 4
    script: {fileID: 0}
  - curve:
      serializedVersion: 2
      m_Curve:
      - time: 0
        value: 0
        inSlope: 0
        outSlope: 0
        tangentMode: 10
      - time: .116666667
        value: 0
        inSlope: 0
        outSlope: 0
        tangentMode: 10
      m_PreInfinity: 2
      m_PostInfinity: 2
    attribute: m_LocalPosition.x
    path: shadow_bottom
    classID: 4
    script: {fileID: 0}
  - curve:
      serializedVersion: 2
      m_Curve:
      - time: 0
        value: -3
        inSlope: 17.1428566
        outSlope: 17.1428566
        tangentMode: 10
      - time: .116666667
        value: -1
        inSlope: 17.1428566
        outSlope: 17.1428566
        tangentMode: 10
      m_PreInfinity: 2
      m_PostInfinity: 2
    attribute: m_LocalPosition.y
    path: shadow_bottom
    classID: 4
    script: {fileID: 0}
  - curve:
      serializedVersion: 2
      m_Curve:
      - time: 0
        value: 0
        inSlope: 0
        outSlope: 0
        tangentMode: 10
      - time: .116666667
        value: 0
        inSlope: 0
        outSlope: 0
        tangentMode: 10
      m_PreInfinity: 2
      m_PostInfinity: 2
    attribute: m_LocalPosition.z
    path: shadow_bottom
    classID: 4
    script: {fileID: 0}
  m_EulerEditorCurves: []
  m_Events: []
