%YAML 1.1
%TAG !u! tag:unity3d.com,2011:
--- !u!74 &7400000
AnimationClip:
  m_ObjectHideFlags: 0
  m_PrefabParentObject: {fileID: 0}
  m_PrefabInternal: {fileID: 0}
  m_Name: Outro
  serializedVersion: 4
  m_AnimationType: 2
  m_Compressed: 0
  m_UseHighQualityCurve: 1
  m_RotationCurves: []
  m_CompressedRotationCurves: []
  m_PositionCurves: []
  m_ScaleCurves:
  - curve:
      serializedVersion: 2
      m_Curve:
      - time: .166666672
        value: {x: 1, y: 1, z: 1}
        inSlope: {x: 2.00000072, y: 2.00000072, z: 0}
        outSlope: {x: 2.00000072, y: 2.00000072, z: 0}
        tangentMode: 1104150528
      - time: .216666669
        value: {x: 1.10000002, y: 1.10000002, z: 1}
        inSlope: {x: -.764705539, y: -.764705539, z: 0}
        outSlope: {x: -.764705539, y: -.764705539, z: 0}
        tangentMode: 217716096
      - time: .5
        value: {x: .100000001, y: .100000001, z: 1}
        inSlope: {x: -3.52941179, y: -3.52941179, z: 0}
        outSlope: {x: -3.52941179, y: -3.52941179, z: 0}
        tangentMode: 0
      m_PreInfinity: 2
      m_PostInfinity: 2
    path: panel
  m_FloatCurves:
  - curve:
      serializedVersion: 2
      m_Curve:
      - time: 0
        value: 1
        inSlope: Infinity
        outSlope: Infinity
        tangentMode: 31
      - time: .5
        value: 0
        inSlope: Infinity
        outSlope: Infinity
        tangentMode: 31
      m_PreInfinity: 2
      m_PostInfinity: 2
    attribute: m_IsActive
    path: panel
    classID: 1
    script: {fileID: 0}
  m_PPtrCurves: []
  m_SampleRate: 60
  m_WrapMode: 0
  m_Bounds:
    m_Center: {x: 0, y: 0, z: 0}
    m_Extent: {x: 0, y: 0, z: 0}
  m_ClipBindingConstant:
    genericBindings:
    - path: 2729300751
      attribute: 3
      script: {fileID: 0}
      classID: 4
      customType: 0
      isPPtrCurve: 0
    - path: 2729300751
      attribute: 2086281974
      script: {fileID: 0}
      classID: 1
      customType: 0
      isPPtrCurve: 0
    pptrCurveMapping: []
  m_AnimationClipSettings:
    serializedVersion: 2
    m_StartTime: 0
    m_StopTime: .5
    m_OrientationOffsetY: 0
    m_Level: 0
    m_CycleOffset: 0
    m_LoopTime: 0
    m_LoopBlend: 0
    m_LoopBlendOrientation: 0
    m_LoopBlendPositionY: 0
    m_LoopBlendPositionXZ: 0
    m_KeepOriginalOrientation: 0
    m_KeepOriginalPositionY: 1
    m_KeepOriginalPositionXZ: 0
    m_HeightFromFeet: 0
    m_Mirror: 0
  m_EditorCurves:
  - curve:
      serializedVersion: 2
      m_Curve:
      - time: .166666672
        value: 1
        inSlope: 2.00000072
        outSlope: 2.00000072
        tangentMode: 10
      - time: .216666669
        value: 1.10000002
        inSlope: -.764705539
        outSlope: -.764705539
        tangentMode: 10
      - time: .5
        value: .100000001
        inSlope: -3.52941179
        outSlope: -3.52941179
        tangentMode: 10
      m_PreInfinity: 2
      m_PostInfinity: 2
    attribute: m_LocalScale.x
    path: panel
    classID: 4
    script: {fileID: 0}
  - curve:
      serializedVersion: 2
      m_Curve:
      - time: .166666672
        value: 1
        inSlope: 2.00000072
        outSlope: 2.00000072
        tangentMode: 10
      - time: .216666669
        value: 1.10000002
        inSlope: -.764705539
        outSlope: -.764705539
        tangentMode: 10
      - time: .5
        value: .100000001
        inSlope: -3.52941179
        outSlope: -3.52941179
        tangentMode: 10
      m_PreInfinity: 2
      m_PostInfinity: 2
    attribute: m_LocalScale.y
    path: panel
    classID: 4
    script: {fileID: 0}
  - curve:
      serializedVersion: 2
      m_Curve:
      - time: .166666672
        value: 1
        inSlope: 0
        outSlope: 0
        tangentMode: 10
      - time: .216666669
        value: 1
        inSlope: 0
        outSlope: 0
        tangentMode: 10
      - time: .5
        value: 1
        inSlope: 0
        outSlope: 0
        tangentMode: 10
      m_PreInfinity: 2
      m_PostInfinity: 2
    attribute: m_LocalScale.z
    path: panel
    classID: 4
    script: {fileID: 0}
  - curve:
      serializedVersion: 2
      m_Curve:
      - time: 0
        value: 1
        inSlope: Infinity
        outSlope: Infinity
        tangentMode: 31
      - time: .5
        value: 0
        inSlope: Infinity
        outSlope: Infinity
        tangentMode: 31
      m_PreInfinity: 2
      m_PostInfinity: 2
    attribute: m_IsActive
    path: panel
    classID: 1
    script: {fileID: 0}
  m_EulerEditorCurves: []
  m_Events:
  - time: 0
    functionName: OutroStarted
    data: 
    objectReferenceParameter: {fileID: 0}
    floatParameter: 0
    intParameter: 0
    messageOptions: 0
  - time: .5
    functionName: OutroComplete
    data: 
    objectReferenceParameter: {fileID: 0}
    floatParameter: 0
    intParameter: 0
    messageOptions: 0
