%YAML 1.1
%TAG !u! tag:unity3d.com,2011:
--- !u!1 &193442
GameObject:
  m_ObjectHideFlags: 0
  m_PrefabParentObject: {fileID: 0}
  m_PrefabInternal: {fileID: 100100000}
  serializedVersion: 4
  m_Component:
  - 4: {fileID: 493442}
  - 114: {fileID: 11493442}
  m_Layer: 0
  m_Name: MenuSprites@1x
  m_TagString: Untagged
  m_Icon: {fileID: 0}
  m_NavMeshLayer: 0
  m_StaticEditorFlags: 0
  m_IsActive: 1
--- !u!4 &493442
Transform:
  m_ObjectHideFlags: 1
  m_PrefabParentObject: {fileID: 0}
  m_PrefabInternal: {fileID: 100100000}
  m_GameObject: {fileID: 193442}
  m_LocalRotation: {x: 0, y: 0, z: 0, w: 1}
  m_LocalPosition: {x: 0, y: 0, z: 0}
  m_LocalScale: {x: 1, y: 1, z: 1}
  m_Children: []
  m_Father: {fileID: 0}
  m_RootOrder: 0
--- !u!114 &11493442
MonoBehaviour:
  m_ObjectHideFlags: 1
  m_PrefabParentObject: {fileID: 0}
  m_PrefabInternal: {fileID: 100100000}
  m_GameObject: {fileID: 193442}
  m_Enabled: 1
  m_EditorHideFlags: 0
  m_Script: {fileID: 11500000, guid: d546f34a90531a14eaba82a43b05b86b, type: 3}
  m_Name: 
  m_EditorClassIdentifier: 
  version: 3
  materialIdsValid: 1
  needMaterialInstance: 1
  spriteDefinitions:
  - name: tools_circle
    boundsData:
    - {x: 0, y: 0, z: 0}
    - {x: 42, y: 42, z: 0}
    untrimmedBoundsData:
    - {x: 0, y: 0, z: 0}
    - {x: 42, y: 42, z: 0}
    texelSize: {x: 1, y: 1}
    positions:
    - {x: -21, y: -21, z: 0}
    - {x: 21, y: -21, z: 0}
    - {x: -21, y: 21, z: 0}
    - {x: 21, y: 21, z: 0}
    normals: []
    tangents: []
    uvs:
    - {x: .00781640597, y: .908205092}
    - {x: .171871096, y: .908205092}
    - {x: .00781640597, y: .990232408}
    - {x: .171871096, y: .990232408}
    indices: 000000000300000001000000020000000300000000000000
    material: {fileID: 2100000, guid: cf4d81d38469ec24fbb6f01d56724720, type: 2}
    materialId: 0
    sourceTextureGUID: 26b62cdd5279b0448a79e49cc4ffa079
    extractRegion: 0
    regionX: 0
    regionY: 0
    regionW: 0
    regionH: 0
    flipped: 0
    complexGeometry: 0
    physicsEngine: 0
    colliderType: 0
    customColliders: []
    colliderVertices: []
    colliderIndicesFwd: 
    colliderIndicesBack: 
    colliderConvex: 0
    colliderSmoothSphereCollisions: 0
    polygonCollider2D: []
    edgeCollider2D: []
    attachPoints: []
  - name: nav_myart
    boundsData:
    - {x: .499999523, y: 0, z: 0}
    - {x: 23, y: 30, z: 0}
    untrimmedBoundsData:
    - {x: 0, y: 0, z: 0}
    - {x: 42, y: 42, z: 0}
    texelSize: {x: 1, y: 1}
    positions:
    - {x: -11, y: -15, z: 0}
    - {x: 11.999999, y: -15, z: 0}
    - {x: -11, y: 15, z: 0}
    - {x: 11.999999, y: 15, z: 0}
    normals: []
    tangents: []
    uvs:
    - {x: .242191404, y: .605470717}
    - {x: .332027346, y: .605470717}
    - {x: .242191404, y: .664060533}
    - {x: .332027346, y: .664060533}
    indices: 000000000300000001000000020000000300000000000000
    material: {fileID: 2100000, guid: cf4d81d38469ec24fbb6f01d56724720, type: 2}
    materialId: 0
    sourceTextureGUID: 3d80015c85ed4cf4e8eab32fa59d924d
    extractRegion: 0
    regionX: 0
    regionY: 0
    regionW: 0
    regionH: 0
    flipped: 0
    complexGeometry: 0
    physicsEngine: 0
    colliderType: 0
    customColliders: []
    colliderVertices: []
    colliderIndicesFwd: 
    colliderIndicesBack: 
    colliderConvex: 0
    colliderSmoothSphereCollisions: 0
    polygonCollider2D: []
    edgeCollider2D: []
    attachPoints: []
  - name: nav_inspiration
    boundsData:
    - {x: -4.76837158e-07, y: -.5, z: 0}
    - {x: 32, y: 35, z: 0}
    untrimmedBoundsData:
    - {x: 0, y: 0, z: 0}
    - {x: 42, y: 42, z: 0}
    texelSize: {x: 1, y: 1}
    positions:
    - {x: -16, y: -18, z: 0}
    - {x: 15.999999, y: -18, z: 0}
    - {x: -16, y: 17, z: 0}
    - {x: 15.999999, y: 17, z: 0}
    normals: []
    tangents: []
    uvs:
    - {x: .187503904, y: .908205092}
    - {x: .312496096, y: .908205092}
    - {x: .187503904, y: .976560533}
    - {x: .312496096, y: .976560533}
    indices: 000000000300000001000000020000000300000000000000
    material: {fileID: 2100000, guid: cf4d81d38469ec24fbb6f01d56724720, type: 2}
    materialId: 0
    sourceTextureGUID: 5070af4aba2b76845a56d2ea207487ef
    extractRegion: 0
    regionX: 0
    regionY: 0
    regionW: 0
    regionH: 0
    flipped: 0
    complexGeometry: 0
    physicsEngine: 0
    colliderType: 0
    customColliders: []
    colliderVertices: []
    colliderIndicesFwd: 
    colliderIndicesBack: 
    colliderConvex: 0
    colliderSmoothSphereCollisions: 0
    polygonCollider2D: []
    edgeCollider2D: []
    attachPoints: []
  - name: nav_bg
    boundsData:
    - {x: 0, y: 28, z: 0}
    - {x: 186, y: 56, z: 0}
    untrimmedBoundsData:
    - {x: 0, y: 28, z: 0}
    - {x: 186, y: 56, z: 0}
    texelSize: {x: 1, y: 1}
    positions:
    - {x: -93, y: 0, z: 0}
    - {x: 93, y: 0, z: 0}
    - {x: -93, y: 56, z: 0}
    - {x: 93, y: 56, z: 0}
    normals: []
    tangents: []
    uvs:
    - {x: .00781640597, y: .537111342}
    - {x: .00781640597, y: .900388658}
    - {x: .226558596, y: .537111342}
    - {x: .226558596, y: .900388658}
    indices: 000000000300000001000000020000000300000000000000
    material: {fileID: 2100000, guid: cf4d81d38469ec24fbb6f01d56724720, type: 2}
    materialId: 0
    sourceTextureGUID: c99f68404c0d9f046bf6e8be95a8e8b6
    extractRegion: 0
    regionX: 0
    regionY: 0
    regionW: 0
    regionH: 0
    flipped: 1
    complexGeometry: 0
    physicsEngine: 0
    colliderType: 0
    customColliders: []
    colliderVertices: []
    colliderIndicesFwd: 
    colliderIndicesBack: 
    colliderConvex: 0
    colliderSmoothSphereCollisions: 0
    polygonCollider2D: []
    edgeCollider2D: []
    attachPoints: []
  - name: bg_pattern
    boundsData:
    - {x: -2.5, y: 4, z: 0}
    - {x: 269, y: 246, z: 0}
    untrimmedBoundsData:
    - {x: .5, y: -.5, z: 0}
    - {x: 277, y: 257, z: 0}
    texelSize: {x: 1, y: 1}
    positions:
    - {x: -137, y: -119, z: 0}
    - {x: 132, y: -119, z: 0}
    - {x: -137, y: 127, z: 0}
    - {x: 132, y: 127, z: 0}
    normals: []
    tangents: []
    uvs:
    - {x: .00781640597, y: .00390820298}
    - {x: .00781640597, y: .529294908}
    - {x: .968746066, y: .00390820298}
    - {x: .968746066, y: .529294908}
    indices: 000000000300000001000000020000000300000000000000
    material: {fileID: 2100000, guid: cf4d81d38469ec24fbb6f01d56724720, type: 2}
    materialId: 0
    sourceTextureGUID: de46cc147a4de484f900435f8815da19
    extractRegion: 0
    regionX: 0
    regionY: 0
    regionW: 0
    regionH: 0
    flipped: 1
    complexGeometry: 0
    physicsEngine: 0
    colliderType: 0
    customColliders: []
    colliderVertices: []
    colliderIndicesFwd: 
    colliderIndicesBack: 
    colliderConvex: 0
    colliderSmoothSphereCollisions: 0
    polygonCollider2D: []
    edgeCollider2D: []
    attachPoints: []
  - name: nav_library
    boundsData:
    - {x: -.5, y: .999999523, z: 0}
    - {x: 31, y: 30, z: 0}
    untrimmedBoundsData:
    - {x: 0, y: 0, z: 0}
    - {x: 42, y: 42, z: 0}
    texelSize: {x: 1, y: 1}
    positions:
    - {x: -16, y: -14, z: 0}
    - {x: 15, y: -14, z: 0}
    - {x: -16, y: 15.999999, z: 0}
    - {x: 15, y: 15.999999, z: 0}
    normals: []
    tangents: []
    uvs:
    - {x: .242191404, y: .537111342}
    - {x: .242191404, y: .597654283}
    - {x: .359371096, y: .537111342}
    - {x: .359371096, y: .597654283}
    indices: 000000000300000001000000020000000300000000000000
    material: {fileID: 2100000, guid: cf4d81d38469ec24fbb6f01d56724720, type: 2}
    materialId: 0
    sourceTextureGUID: fa164a883d85b9644870ab7755c67a3b
    extractRegion: 0
    regionX: 0
    regionY: 0
    regionW: 0
    regionH: 0
    flipped: 1
    complexGeometry: 0
    physicsEngine: 0
    colliderType: 0
    customColliders: []
    colliderVertices: []
    colliderIndicesFwd: 
    colliderIndicesBack: 
    colliderConvex: 0
    colliderSmoothSphereCollisions: 0
    polygonCollider2D: []
    edgeCollider2D: []
    attachPoints: []
  premultipliedAlpha: 0
  material: {fileID: 0}
  materials:
  - {fileID: 2100000, guid: cf4d81d38469ec24fbb6f01d56724720, type: 2}
  textures: []
  pngTextures:
  - {fileID: 4900000, guid: 0e76e5d9753c41a49b5c123527bc9cc5, type: 3}
  materialPngTextureId: 00000000
  textureFilterMode: 1
  textureMipMaps: 0
  allowMultipleAtlases: 0
  spriteCollectionGUID: 570f481cdef68f241add076726f96a2c
  spriteCollectionName: MenuSprites@1x
  assetName: 
  loadable: 0
  invOrthoSize: 2
  halfTargetHeight: .5
  buildKey: 815284254
  dataGuid: 0eda772df5e8ae546a8df0a37947575a
  managedSpriteCollection: 1
  hasPlatformData: 0
  spriteCollectionPlatforms: []
  spriteCollectionPlatformGUIDs: []
--- !u!1001 &100100000
Prefab:
  m_ObjectHideFlags: 1
  serializedVersion: 2
  m_Modification:
    m_TransformParent: {fileID: 0}
    m_Modifications: []
    m_RemovedComponents: []
  m_ParentPrefab: {fileID: 0}
  m_RootGameObject: {fileID: 193442}
  m_IsPrefabParent: 1
  m_IsExploded: 1
