%YAML 1.1
%TAG !u! tag:unity3d.com,2011:
--- !u!1 &132208
GameObject:
  m_ObjectHideFlags: 0
  m_PrefabParentObject: {fileID: 0}
  m_PrefabInternal: {fileID: 100100000}
  serializedVersion: 4
  m_Component:
  - 4: {fileID: 432208}
  - 114: {fileID: 11432208}
  m_Layer: 0
  m_Name: Popup_GamePaused
  m_TagString: Untagged
  m_Icon: {fileID: 0}
  m_NavMeshLayer: 0
  m_StaticEditorFlags: 0
  m_IsActive: 1
--- !u!4 &432208
Transform:
  m_ObjectHideFlags: 1
  m_PrefabParentObject: {fileID: 0}
  m_PrefabInternal: {fileID: 100100000}
  m_GameObject: {fileID: 132208}
  m_LocalRotation: {x: 0, y: 0, z: 0, w: 1}
  m_LocalPosition: {x: 0, y: 0, z: 0}
  m_LocalScale: {x: 1, y: 1, z: 1}
  m_Children: []
  m_Father: {fileID: 0}
  m_RootOrder: 0
--- !u!114 &11432208
MonoBehaviour:
  m_ObjectHideFlags: 1
  m_PrefabParentObject: {fileID: 0}
  m_PrefabInternal: {fileID: 100100000}
  m_GameObject: {fileID: 132208}
  m_Enabled: 1
  m_EditorHideFlags: 0
  m_Script: {fileID: 11500000, guid: d546f34a90531a14eaba82a43b05b86b, type: 3}
  m_Name: 
  m_EditorClassIdentifier: 
  version: 3
  materialIdsValid: 0
  needMaterialInstance: 0
  spriteDefinitions: []
  premultipliedAlpha: 0
  material: {fileID: 0}
  materials: []
  textures: []
  pngTextures: []
  materialPngTextureId: 
  textureFilterMode: 1
  textureMipMaps: 0
  allowMultipleAtlases: 0
  spriteCollectionGUID: 86d38b2cc5a2893478688fa69f0ccf4e
  spriteCollectionName: Popup_GamePaused
  assetName: 
  loadable: 0
  invOrthoSize: 1
  halfTargetHeight: 1
  buildKey: 0
  dataGuid: 4723c99d88f47714b97b9269ff4ccc67
  managedSpriteCollection: 0
  hasPlatformData: 1
  spriteCollectionPlatforms:
  - 1x
  - 2x
  spriteCollectionPlatformGUIDs:
  - 29d64ed2d45116748b1e7548487bed50
  - 0c95c7f00c89df7418e894a66fef04cd
--- !u!1001 &100100000
Prefab:
  m_ObjectHideFlags: 1
  serializedVersion: 2
  m_Modification:
    m_TransformParent: {fileID: 0}
    m_Modifications: []
    m_RemovedComponents: []
  m_ParentPrefab: {fileID: 0}
  m_RootGameObject: {fileID: 132208}
  m_IsPrefabParent: 1
  m_IsExploded: 1
