%YAML 1.1
%TAG !u! tag:unity3d.com,2011:
--- !u!1 &124086
GameObject:
  m_ObjectHideFlags: 0
  m_PrefabParentObject: {fileID: 0}
  m_PrefabInternal: {fileID: 100100000}
  serializedVersion: 4
  m_Component:
  - 4: {fileID: 424086}
  - 114: {fileID: 11424086}
  m_Layer: 0
  m_Name: GenericHelpSprites@1x
  m_TagString: Untagged
  m_Icon: {fileID: 0}
  m_NavMeshLayer: 0
  m_StaticEditorFlags: 0
  m_IsActive: 1
--- !u!4 &424086
Transform:
  m_ObjectHideFlags: 1
  m_PrefabParentObject: {fileID: 0}
  m_PrefabInternal: {fileID: 100100000}
  m_GameObject: {fileID: 124086}
  m_LocalRotation: {x: 0, y: 0, z: 0, w: 1}
  m_LocalPosition: {x: 0, y: 0, z: 0}
  m_LocalScale: {x: 1, y: 1, z: 1}
  m_Children: []
  m_Father: {fileID: 0}
  m_RootOrder: 0
--- !u!114 &11424086
MonoBehaviour:
  m_ObjectHideFlags: 1
  m_PrefabParentObject: {fileID: 0}
  m_PrefabInternal: {fileID: 100100000}
  m_GameObject: {fileID: 124086}
  m_Enabled: 1
  m_EditorHideFlags: 0
  m_Script: {fileID: 11500000, guid: d546f34a90531a14eaba82a43b05b86b, type: 3}
  m_Name: 
  m_EditorClassIdentifier: 
  version: 3
  materialIdsValid: 1
  needMaterialInstance: 1
  spriteDefinitions:
  - name: point_7
    boundsData:
    - {x: 5.00000095, y: 1.99999809, z: 0}
    - {x: 36, y: 82, z: 0}
    untrimmedBoundsData:
    - {x: 0, y: 0, z: 0}
    - {x: 200, y: 200, z: 0}
    texelSize: {x: 1, y: 1}
    positions:
    - {x: -13, y: -39, z: 0}
    - {x: 23.0000019, y: -39, z: 0}
    - {x: -13, y: 42.9999962, z: 0}
    - {x: 23.0000019, y: 42.9999962, z: 0}
    normals: []
    tangents: []
    uvs:
    - {x: .367191404, y: .00781640597}
    - {x: .507808566, y: .00781640597}
    - {x: .367191404, y: .328121096}
    - {x: .507808566, y: .328121096}
    indices: 000000000300000001000000020000000300000000000000
    material: {fileID: 2100000, guid: 52a766a0b40086147b99c33677b0448c, type: 2}
    materialId: 0
    sourceTextureGUID: 1a0d8642acda34b54aa4afe4d53b74dd
    extractRegion: 0
    regionX: 0
    regionY: 0
    regionW: 0
    regionH: 0
    flipped: 0
    complexGeometry: 0
    physicsEngine: 0
    colliderType: 0
    customColliders: []
    colliderVertices: []
    colliderIndicesFwd: 
    colliderIndicesBack: 
    colliderConvex: 0
    colliderSmoothSphereCollisions: 0
    polygonCollider2D: []
    edgeCollider2D: []
    attachPoints: []
  - name: point_1
    boundsData:
    - {x: 5.5, y: 3.00000191, z: 0}
    - {x: 37, y: 84, z: 0}
    untrimmedBoundsData:
    - {x: 0, y: 0, z: 0}
    - {x: 200, y: 200, z: 0}
    texelSize: {x: 1, y: 1}
    positions:
    - {x: -13, y: -39, z: 0}
    - {x: 24, y: -39, z: 0}
    - {x: -13, y: 45.0000038, z: 0}
    - {x: 24, y: 45.0000038, z: 0}
    normals: []
    tangents: []
    uvs:
    - {x: .363285154, y: .652347684}
    - {x: .507808566, y: .652347684}
    - {x: .363285154, y: .980464816}
    - {x: .507808566, y: .980464816}
    indices: 000000000300000001000000020000000300000000000000
    material: {fileID: 2100000, guid: 52a766a0b40086147b99c33677b0448c, type: 2}
    materialId: 0
    sourceTextureGUID: ac388184c4d5b4265b551cc65a99c32c
    extractRegion: 0
    regionX: 0
    regionY: 0
    regionW: 0
    regionH: 0
    flipped: 0
    complexGeometry: 0
    physicsEngine: 0
    colliderType: 0
    customColliders: []
    colliderVertices: []
    colliderIndicesFwd: 
    colliderIndicesBack: 
    colliderConvex: 0
    colliderSmoothSphereCollisions: 0
    polygonCollider2D: []
    edgeCollider2D: []
    attachPoints: []
  - name: point_6
    boundsData:
    - {x: 4.99999809, y: 6.99999809, z: 0}
    - {x: 47.9999962, y: 92, z: 0}
    untrimmedBoundsData:
    - {x: 0, y: 0, z: 0}
    - {x: 200, y: 200, z: 0}
    texelSize: {x: 1, y: 1}
    positions:
    - {x: -19, y: -39, z: 0}
    - {x: 28.9999962, y: -39, z: 0}
    - {x: -19, y: 52.9999962, z: 0}
    - {x: 28.9999962, y: 52.9999962, z: 0}
    normals: []
    tangents: []
    uvs:
    - {x: .00781640597, y: .00781640597}
    - {x: .195308596, y: .00781640597}
    - {x: .00781640597, y: .367183596}
    - {x: .195308596, y: .367183596}
    indices: 000000000300000001000000020000000300000000000000
    material: {fileID: 2100000, guid: 52a766a0b40086147b99c33677b0448c, type: 2}
    materialId: 0
    sourceTextureGUID: 986aa868c3b284beea86127d014d4a26
    extractRegion: 0
    regionX: 0
    regionY: 0
    regionW: 0
    regionH: 0
    flipped: 0
    complexGeometry: 0
    physicsEngine: 0
    colliderType: 0
    customColliders: []
    colliderVertices: []
    colliderIndicesFwd: 
    colliderIndicesBack: 
    colliderConvex: 0
    colliderSmoothSphereCollisions: 0
    polygonCollider2D: []
    edgeCollider2D: []
    attachPoints: []
  - name: point_4
    boundsData:
    - {x: 4.50000095, y: 4.5, z: 0}
    - {x: 39, y: 87, z: 0}
    untrimmedBoundsData:
    - {x: 0, y: 0, z: 0}
    - {x: 200, y: 200, z: 0}
    texelSize: {x: 1, y: 1}
    positions:
    - {x: -14.9999981, y: -39, z: 0}
    - {x: 24, y: -39, z: 0}
    - {x: -14.9999981, y: 48, z: 0}
    - {x: 24, y: 48, z: 0}
    normals: []
    tangents: []
    uvs:
    - {x: .00781640597, y: .757816434}
    - {x: .00781640597, y: .910152316}
    - {x: .347652346, y: .757816434}
    - {x: .347652346, y: .910152316}
    indices: 000000000300000001000000020000000300000000000000
    material: {fileID: 2100000, guid: 52a766a0b40086147b99c33677b0448c, type: 2}
    materialId: 0
    sourceTextureGUID: 7b67410906b5941529e6dc26c2e8ecfc
    extractRegion: 0
    regionX: 0
    regionY: 0
    regionW: 0
    regionH: 0
    flipped: 1
    complexGeometry: 0
    physicsEngine: 0
    colliderType: 0
    customColliders: []
    colliderVertices: []
    colliderIndicesFwd: 
    colliderIndicesBack: 
    colliderConvex: 0
    colliderSmoothSphereCollisions: 0
    polygonCollider2D: []
    edgeCollider2D: []
    attachPoints: []
  - name: point_3
    boundsData:
    - {x: 5.00000095, y: 2.50000381, z: 0}
    - {x: 36, y: 83.0000076, z: 0}
    untrimmedBoundsData:
    - {x: 0, y: 0, z: 0}
    - {x: 200, y: 200, z: 0}
    texelSize: {x: 1, y: 1}
    positions:
    - {x: -13, y: -39, z: 0}
    - {x: 23.0000019, y: -39, z: 0}
    - {x: -13, y: 44.0000076, z: 0}
    - {x: 23.0000019, y: 44.0000076, z: 0}
    normals: []
    tangents: []
    uvs:
    - {x: .210941404, y: .00781640597}
    - {x: .351558596, y: .00781640597}
    - {x: .210941404, y: .332027346}
    - {x: .351558596, y: .332027346}
    indices: 000000000300000001000000020000000300000000000000
    material: {fileID: 2100000, guid: 52a766a0b40086147b99c33677b0448c, type: 2}
    materialId: 0
    sourceTextureGUID: 4a8a713aee6a942198d3d8fbd4ed3dc3
    extractRegion: 0
    regionX: 0
    regionY: 0
    regionW: 0
    regionH: 0
    flipped: 0
    complexGeometry: 0
    physicsEngine: 0
    colliderType: 0
    customColliders: []
    colliderVertices: []
    colliderIndicesFwd: 
    colliderIndicesBack: 
    colliderConvex: 0
    colliderSmoothSphereCollisions: 0
    polygonCollider2D: []
    edgeCollider2D: []
    attachPoints: []
  - name: point_5
    boundsData:
    - {x: 4.49999809, y: 6.99999809, z: 0}
    - {x: 46.9999962, y: 92, z: 0}
    untrimmedBoundsData:
    - {x: 0, y: 0, z: 0}
    - {x: 200, y: 200, z: 0}
    texelSize: {x: 1, y: 1}
    positions:
    - {x: -19, y: -39, z: 0}
    - {x: 27.9999962, y: -39, z: 0}
    - {x: -19, y: 52.9999962, z: 0}
    - {x: 27.9999962, y: 52.9999962, z: 0}
    normals: []
    tangents: []
    uvs:
    - {x: .00781640597, y: .382816404}
    - {x: .191402346, y: .382816404}
    - {x: .00781640597, y: .742183566}
    - {x: .191402346, y: .742183566}
    indices: 000000000300000001000000020000000300000000000000
    material: {fileID: 2100000, guid: 52a766a0b40086147b99c33677b0448c, type: 2}
    materialId: 0
    sourceTextureGUID: 6327bf7b8eff644458432d339b1bab70
    extractRegion: 0
    regionX: 0
    regionY: 0
    regionW: 0
    regionH: 0
    flipped: 0
    complexGeometry: 0
    physicsEngine: 0
    colliderType: 0
    customColliders: []
    colliderVertices: []
    colliderIndicesFwd: 
    colliderIndicesBack: 
    colliderConvex: 0
    colliderSmoothSphereCollisions: 0
    polygonCollider2D: []
    edgeCollider2D: []
    attachPoints: []
  - name: point_2
    boundsData:
    - {x: 5.00000095, y: 1.99999809, z: 0}
    - {x: 36, y: 82, z: 0}
    untrimmedBoundsData:
    - {x: 0, y: 0, z: 0}
    - {x: 200, y: 200, z: 0}
    texelSize: {x: 1, y: 1}
    positions:
    - {x: -13, y: -39, z: 0}
    - {x: 23.0000019, y: -39, z: 0}
    - {x: -13, y: 42.9999962, z: 0}
    - {x: 23.0000019, y: 42.9999962, z: 0}
    normals: []
    tangents: []
    uvs:
    - {x: .367191404, y: .00781640597}
    - {x: .507808566, y: .00781640597}
    - {x: .367191404, y: .328121096}
    - {x: .507808566, y: .328121096}
    indices: 000000000300000001000000020000000300000000000000
    material: {fileID: 2100000, guid: 52a766a0b40086147b99c33677b0448c, type: 2}
    materialId: 0
    sourceTextureGUID: 1d06ccefcb7964665840afd7c30ef600
    extractRegion: 0
    regionX: 0
    regionY: 0
    regionW: 0
    regionH: 0
    flipped: 0
    complexGeometry: 0
    physicsEngine: 0
    colliderType: 0
    customColliders: []
    colliderVertices: []
    colliderIndicesFwd: 
    colliderIndicesBack: 
    colliderConvex: 0
    colliderSmoothSphereCollisions: 0
    polygonCollider2D: []
    edgeCollider2D: []
    attachPoints: []
  - name: main_ui_btn_close
    boundsData:
    - {x: .5, y: -.5, z: 0}
    - {x: 65, y: 65, z: 0}
    untrimmedBoundsData:
    - {x: .5, y: -.5, z: 0}
    - {x: 65, y: 65, z: 0}
    texelSize: {x: 1, y: 1}
    positions:
    - {x: -32, y: -33, z: 0}
    - {x: 33, y: -33, z: 0}
    - {x: -32, y: 32, z: 0}
    - {x: 33, y: 32, z: 0}
    normals: []
    tangents: []
    uvs:
    - {x: .207035154, y: .382816404}
    - {x: .460933596, y: .382816404}
    - {x: .207035154, y: .636714816}
    - {x: .460933596, y: .636714816}
    indices: 000000000300000001000000020000000300000000000000
    material: {fileID: 2100000, guid: 52a766a0b40086147b99c33677b0448c, type: 2}
    materialId: 0
    sourceTextureGUID: f22d2615c2787804fb6deb9c2cad1c78
    extractRegion: 0
    regionX: 0
    regionY: 0
    regionW: 0
    regionH: 0
    flipped: 0
    complexGeometry: 0
    physicsEngine: 0
    colliderType: 0
    customColliders: []
    colliderVertices: []
    colliderIndicesFwd: 
    colliderIndicesBack: 
    colliderConvex: 0
    colliderSmoothSphereCollisions: 0
    polygonCollider2D: []
    edgeCollider2D: []
    attachPoints: []
  premultipliedAlpha: 0
  material: {fileID: 0}
  materials:
  - {fileID: 2100000, guid: 52a766a0b40086147b99c33677b0448c, type: 2}
  textures: []
  pngTextures:
  - {fileID: 4900000, guid: c6d61fd43a4ec894d86ca5f45ecefc28, type: 3}
  materialPngTextureId: 00000000
  textureFilterMode: 1
  textureMipMaps: 0
  allowMultipleAtlases: 0
  spriteCollectionGUID: 6f8dde05fa487cf42b2abba96e9875da
  spriteCollectionName: GenericHelpSprites@1x
  assetName: 
  loadable: 0
  invOrthoSize: 2
  halfTargetHeight: .5
  buildKey: 413759661
  dataGuid: 597d625592e27fe429ede5a98d08bd0e
  managedSpriteCollection: 1
  hasPlatformData: 0
  spriteCollectionPlatforms: []
  spriteCollectionPlatformGUIDs: []
--- !u!1001 &100100000
Prefab:
  m_ObjectHideFlags: 1
  serializedVersion: 2
  m_Modification:
    m_TransformParent: {fileID: 0}
    m_Modifications: []
    m_RemovedComponents: []
  m_ParentPrefab: {fileID: 0}
  m_RootGameObject: {fileID: 124086}
  m_IsPrefabParent: 1
  m_IsExploded: 1
