%YAML 1.1
%TAG !u! tag:unity3d.com,2011:
--- !u!114 &11400000
MonoBehaviour:
  m_ObjectHideFlags: 0
  m_PrefabParentObject: {fileID: 0}
  m_PrefabInternal: {fileID: 0}
  m_GameObject: {fileID: 0}
  m_Enabled: 1
  m_EditorHideFlags: 0
  m_Script: {fileID: 11500000, guid: b2580843702051c47ac89024a50814a9, type: 3}
  m_Name: tk2d_429190cc8c40ed445892c36fa42e0000
  m_EditorClassIdentifier: 
  objectReference: {fileID: 11412618, guid: 429190cc8c40ed445892c36fa42e0000, type: 2}
