%YAML 1.1
%TAG !u! tag:unity3d.com,2011:
--- !u!114 &11400000
MonoBehaviour:
  m_ObjectHideFlags: 0
  m_PrefabParentObject: {fileID: 0}
  m_PrefabInternal: {fileID: 0}
  m_GameObject: {fileID: 0}
  m_Enabled: 1
  m_EditorHideFlags: 0
  m_Script: {fileID: 11500000, guid: b2580843702051c47ac89024a50814a9, type: 3}
  m_Name: tk2d_c3266d0a226bc41ccb30ba09ed85bbc6
  m_EditorClassIdentifier: 
  objectReference: {fileID: 11448660, guid: c3266d0a226bc41ccb30ba09ed85bbc6, type: 2}
