%YAML 1.1
%TAG !u! tag:unity3d.com,2011:
--- !u!114 &11400000
MonoBehaviour:
  m_ObjectHideFlags: 0
  m_PrefabParentObject: {fileID: 0}
  m_PrefabInternal: {fileID: 0}
  m_GameObject: {fileID: 0}
  m_Enabled: 1
  m_EditorHideFlags: 0
  m_Script: {fileID: 11500000, guid: b2580843702051c47ac89024a50814a9, type: 3}
  m_Name: tk2d_4a13ed4402af84a1aa45ce2668f79c0b
  m_EditorClassIdentifier: 
  objectReference: {fileID: 11460854, guid: 4a13ed4402af84a1aa45ce2668f79c0b, type: 2}
