%YAML 1.1
%TAG !u! tag:unity3d.com,2011:
--- !u!114 &11400000
MonoBehaviour:
  m_ObjectHideFlags: 0
  m_PrefabParentObject: {fileID: 0}
  m_PrefabInternal: {fileID: 0}
  m_GameObject: {fileID: 0}
  m_Enabled: 1
  m_EditorHideFlags: 0
  m_Script: {fileID: 11500000, guid: b2580843702051c47ac89024a50814a9, type: 3}
  m_Name: tk2d_0c95c7f00c89df7418e894a66fef04cd
  m_EditorClassIdentifier: 
  objectReference: {fileID: 11475972, guid: 0c95c7f00c89df7418e894a66fef04cd, type: 2}
